<?xml version="1.0" encoding="UTF-8" standalone="no"?>
<!-- Created with Inkscape (http://www.inkscape.org/) -->

<svg
   width="127.99999"
   height="127.99999"
   viewBox="0 0 33.866664 33.866664"
   version="1.1"
   id="svg1"
   xml:space="preserve"
   xmlns:xlink="http://www.w3.org/1999/xlink"
   xmlns="http://www.w3.org/2000/svg"
   xmlns:svg="http://www.w3.org/2000/svg"><defs
     id="defs1"><linearGradient
       id="linearGradient4671"><stop
         style="stop-color:#ffd43b;stop-opacity:1;"
         offset="0"
         id="stop4673" /><stop
         style="stop-color:#ffe873;stop-opacity:1"
         offset="1"
         id="stop4675" /></linearGradient><linearGradient
       id="linearGradient4689"><stop
         style="stop-color:#5a9fd4;stop-opacity:1;"
         offset="0"
         id="stop4691" /><stop
         style="stop-color:#306998;stop-opacity:1;"
         offset="1"
         id="stop4693" /></linearGradient><linearGradient
       xlink:href="#linearGradient4671"
       id="linearGradient1475"
       gradientUnits="userSpaceOnUse"
       gradientTransform="matrix(0.14883897,0,0,0.15027592,-2.4843924,-5.4044487)"
       x1="150.96111"
       y1="192.35176"
       x2="112.03144"
       y2="137.27299" /><linearGradient
       xlink:href="#linearGradient4689"
       id="linearGradient1478"
       gradientUnits="userSpaceOnUse"
       gradientTransform="matrix(0.14883897,0,0,0.15027592,-2.4843924,-5.4044487)"
       x1="26.648937"
       y1="20.603781"
       x2="135.66525"
       y2="114.39767" /></defs><g
     id="layer1"><g
       id="g1"
       transform="matrix(1.1389015,0,0,1.1389015,-1.5028949,2.6288083)"><path
         style="fill:url(#linearGradient1478);fill-opacity:1;stroke-width:0.264583"
         d="m 16.012603,-2.3079532 c -1.212758,0.00564 -2.370915,0.109066 -3.389974,0.289388 -3.0020194,0.5303583 -3.5470698,1.64044371 -3.5470701,3.6876301 v 2.7037109 h 7.0941401 v 0.901237 H 9.0755589 6.4131892 c -2.0617548,0 -3.8670862,1.2392334 -4.4317708,3.5966796 -0.6513565,2.7021806 -0.6802477,4.3883856 0,7.2098956 0.5042769,2.100224 1.7085583,3.596679 3.7703124,3.59668 h 2.4391276 v -3.241146 c 0,-2.341537 2.0259526,-4.406966 4.4317706,-4.406966 h 7.085873 c 1.972455,0 3.547071,-1.624056 3.54707,-3.6049479 V 1.6690649 c 0,-1.92255203 -1.621891,-3.3667639 -3.54707,-3.6876301 -1.218668,-0.2028627 -2.483141,-0.2950232 -3.695899,-0.289388 z m -3.836458,2.1745443 c 0.732776,0 1.331185,0.60818331 1.331185,1.3559895 -10e-7,0.7451555 -0.598409,1.3477213 -1.331185,1.3477213 -0.735403,-3e-7 -1.331185,-0.602566 -1.331185,-1.3477213 0,-0.74780593 0.595782,-1.3559895 1.331185,-1.3559895 z"
         id="path1948" /><path
         style="fill:url(#linearGradient1475);fill-opacity:1;stroke-width:0.264583"
         d="m 24.140272,5.2740128 v 3.1501953 c 0,2.4423039 -2.070601,4.4979159 -4.43177,4.4979169 h -7.085873 c -1.940939,0 -3.5470698,1.661182 -3.5470701,3.604948 v 6.755142 c 0,1.922553 1.6717931,3.053377 3.5470701,3.604949 2.245606,0.660297 4.399025,0.779629 7.085873,0 1.785978,-0.517099 3.547071,-1.557764 3.54707,-3.604949 v -2.70371 h -7.085873 v -0.901237 h 7.085873 3.547071 c 2.061755,0 2.83005,-1.438119 3.547068,-3.59668 0.740656,-2.222205 0.709142,-4.359215 0,-7.2098956 C 29.840182,6.8182029 28.86702,5.2740128 26.802643,5.2740128 Z M 20.154986,22.380979 c 0.735403,1e-6 1.331185,0.602566 1.331185,1.34772 -10e-7,0.747806 -0.595782,1.355991 -1.331185,1.355991 -0.732777,0 -1.331185,-0.608185 -1.331185,-1.355991 1e-6,-0.745154 0.598407,-1.34772 1.331185,-1.34772 z"
         id="path1950" /></g></g><style
     type="text/css"
     id="style1">&#10;	.st0{fill:url(#SVGID_1_);}&#10;	.st1{fill:#515151;}&#10;</style><style
     type="text/css"
     id="style1-5">&#10;	.st0{fill:url(#SVGID_1_);}&#10;	.st1{fill:#515151;}&#10;</style></svg>
